<?xml version="1.0" encoding="UTF-8" standalone="no"?>
<!-- Created with Inkscape (http://www.inkscape.org/) -->

<svg
   xmlns:dc="http://purl.org/dc/elements/1.1/"
   xmlns:cc="http://creativecommons.org/ns#"
   xmlns:rdf="http://www.w3.org/1999/02/22-rdf-syntax-ns#"
   xmlns:svg="http://www.w3.org/2000/svg"
   xmlns="http://www.w3.org/2000/svg"
   xmlns:sodipodi="http://sodipodi.sourceforge.net/DTD/sodipodi-0.dtd"
   xmlns:inkscape="http://www.inkscape.org/namespaces/inkscape"
   width="118mm"
   height="110mm"
   viewBox="0 0 118 110"
   version="1.1"
   id="svg8"
   inkscape:version="0.92.2 (5c3e80d, 2017-08-06)"
   sodipodi:docname="gpu.svg">
  <defs
     id="defs2">
    <marker
       inkscape:isstock="true"
       style="overflow:visible"
       id="marker2826"
       refX="0"
       refY="0"
       orient="auto"
       inkscape:stockid="Arrow1Send">
      <path
         transform="matrix(-0.2,0,0,-0.2,-1.2,0)"
         style="fill:#000000;fill-opacity:1;fill-rule:evenodd;stroke:#000000;stroke-width:1.00000003pt;stroke-opacity:1"
         d="M 0,0 5,-5 -12.5,0 5,5 Z"
         id="path2824"
         inkscape:connector-curvature="0" />
    </marker>
    <marker
       inkscape:stockid="Arrow1Send"
       orient="auto"
       refY="0"
       refX="0"
       id="marker2720"
       style="overflow:visible"
       inkscape:isstock="true">
      <path
         id="path2718"
         d="M 0,0 5,-5 -12.5,0 5,5 Z"
         style="fill:#000000;fill-opacity:1;fill-rule:evenodd;stroke:#000000;stroke-width:1.00000003pt;stroke-opacity:1"
         transform="matrix(-0.2,0,0,-0.2,-1.2,0)"
         inkscape:connector-curvature="0" />
    </marker>
    <marker
       inkscape:isstock="true"
       style="overflow:visible"
       id="marker2620"
       refX="0"
       refY="0"
       orient="auto"
       inkscape:stockid="Arrow1Send"
       inkscape:collect="always">
      <path
         transform="matrix(-0.2,0,0,-0.2,-1.2,0)"
         style="fill:#000000;fill-opacity:1;fill-rule:evenodd;stroke:#000000;stroke-width:1.00000003pt;stroke-opacity:1"
         d="M 0,0 5,-5 -12.5,0 5,5 Z"
         id="path2618"
         inkscape:connector-curvature="0" />
    </marker>
    <marker
       inkscape:stockid="Arrow1Send"
       orient="auto"
       refY="0"
       refX="0"
       id="marker2526"
       style="overflow:visible"
       inkscape:isstock="true"
       inkscape:collect="always">
      <path
         id="path2524"
         d="M 0,0 5,-5 -12.5,0 5,5 Z"
         style="fill:#000000;fill-opacity:1;fill-rule:evenodd;stroke:#000000;stroke-width:1.00000003pt;stroke-opacity:1"
         transform="matrix(-0.2,0,0,-0.2,-1.2,0)"
         inkscape:connector-curvature="0" />
    </marker>
    <marker
       inkscape:stockid="Arrow2Mend"
       orient="auto"
       refY="0"
       refX="0"
       id="marker2444"
       style="overflow:visible"
       inkscape:isstock="true">
      <path
         id="path2442"
         style="fill:#000000;fill-opacity:1;fill-rule:evenodd;stroke:#000000;stroke-width:0.625;stroke-linejoin:round;stroke-opacity:1"
         d="M 8.7185878,4.0337352 -2.2072895,0.01601326 8.7185884,-4.0017078 c -1.7454984,2.3720609 -1.7354408,5.6174519 -6e-7,8.035443 z"
         transform="scale(-0.6)"
         inkscape:connector-curvature="0" />
    </marker>
    <marker
       inkscape:stockid="Arrow1Send"
       orient="auto"
       refY="0"
       refX="0"
       id="marker2356"
       style="overflow:visible"
       inkscape:isstock="true">
      <path
         id="path2354"
         d="M 0,0 5,-5 -12.5,0 5,5 Z"
         style="fill:#000000;fill-opacity:1;fill-rule:evenodd;stroke:#000000;stroke-width:1.00000003pt;stroke-opacity:1"
         transform="matrix(-0.2,0,0,-0.2,-1.2,0)"
         inkscape:connector-curvature="0" />
    </marker>
    <marker
       inkscape:stockid="Arrow1Send"
       orient="auto"
       refY="0"
       refX="0"
       id="Arrow1Send"
       style="overflow:visible"
       inkscape:isstock="true">
      <path
         id="path1977"
         d="M 0,0 5,-5 -12.5,0 5,5 Z"
         style="fill:#000000;fill-opacity:1;fill-rule:evenodd;stroke:#000000;stroke-width:1.00000003pt;stroke-opacity:1"
         transform="matrix(-0.2,0,0,-0.2,-1.2,0)"
         inkscape:connector-curvature="0" />
    </marker>
    <marker
       inkscape:stockid="Arrow2Mend"
       orient="auto"
       refY="0"
       refX="0"
       id="Arrow2Mend"
       style="overflow:visible"
       inkscape:isstock="true">
      <path
         id="path1989"
         style="fill:#000000;fill-opacity:1;fill-rule:evenodd;stroke:#000000;stroke-width:0.625;stroke-linejoin:round;stroke-opacity:1"
         d="M 8.7185878,4.0337352 -2.2072895,0.01601326 8.7185884,-4.0017078 c -1.7454984,2.3720609 -1.7354408,5.6174519 -6e-7,8.035443 z"
         transform="scale(-0.6)"
         inkscape:connector-curvature="0" />
    </marker>
    <marker
       inkscape:isstock="true"
       style="overflow:visible"
       id="marker8083"
       refX="0"
       refY="0"
       orient="auto"
       inkscape:stockid="Arrow1Mend">
      <path
         transform="matrix(-0.4,0,0,-0.4,-4,0)"
         style="fill:#000000;fill-opacity:1;fill-rule:evenodd;stroke:#000000;stroke-width:1.00000003pt;stroke-opacity:1"
         d="M 0,0 5,-5 -12.5,0 5,5 Z"
         id="path8081"
         inkscape:connector-curvature="0" />
    </marker>
    <marker
       inkscape:stockid="Arrow1Mstart"
       orient="auto"
       refY="0"
       refX="0"
       id="Arrow1Mstart"
       style="overflow:visible"
       inkscape:isstock="true">
      <path
         id="path1096"
         d="M 0,0 5,-5 -12.5,0 5,5 Z"
         style="fill:#000000;fill-opacity:1;fill-rule:evenodd;stroke:#000000;stroke-width:1.00000003pt;stroke-opacity:1"
         transform="matrix(0.4,0,0,0.4,4,0)"
         inkscape:connector-curvature="0" />
    </marker>
    <marker
       inkscape:stockid="Arrow1Mend"
       orient="auto"
       refY="0"
       refX="0"
       id="Arrow1Mend"
       style="overflow:visible"
       inkscape:isstock="true">
      <path
         id="path1099"
         d="M 0,0 5,-5 -12.5,0 5,5 Z"
         style="fill:#000000;fill-opacity:1;fill-rule:evenodd;stroke:#000000;stroke-width:1.00000003pt;stroke-opacity:1"
         transform="matrix(-0.4,0,0,-0.4,-4,0)"
         inkscape:connector-curvature="0" />
    </marker>
  </defs>
  <sodipodi:namedview
     id="base"
     pagecolor="#ffffff"
     bordercolor="#666666"
     borderopacity="1.0"
     inkscape:pageopacity="0.0"
     inkscape:pageshadow="2"
     inkscape:zoom="1.4142136"
     inkscape:cx="205.20427"
     inkscape:cy="189.0985"
     inkscape:document-units="mm"
     inkscape:current-layer="layer1"
     showgrid="true"
     height="210mm"
     inkscape:window-width="1600"
     inkscape:window-height="847"
     inkscape:window-x="-8"
     inkscape:window-y="22"
     inkscape:window-maximized="1">
    <inkscape:grid
       type="xygrid"
       id="grid819" />
  </sodipodi:namedview>
  <metadata
     id="metadata5">
    <rdf:RDF>
      <cc:Work
         rdf:about="">
        <dc:format>image/svg+xml</dc:format>
        <dc:type
           rdf:resource="http://purl.org/dc/dcmitype/StillImage" />
        <dc:title></dc:title>
      </cc:Work>
    </rdf:RDF>
  </metadata>
  <g
     inkscape:label="Layer 1"
     inkscape:groupmode="layer"
     id="layer1"
     transform="translate(0,-187)">
    <circle
       style="fill:#000000;fill-opacity:1;stroke:#000000;stroke-width:0.0634501;stroke-miterlimit:4;stroke-dasharray:none;stroke-opacity:1"
       id="path817"
       cx="18.419386"
       cy="200.83151"
       r="0.73485869" />
    <path
       style="fill:none;stroke:#000000;stroke-width:0.21768679px;stroke-linecap:butt;stroke-linejoin:miter;stroke-opacity:1"
       d="m 21.695838,197.51669 v 46.56665"
       id="path821"
       inkscape:connector-curvature="0" />
    <path
       style="fill:none;stroke:#000000;stroke-width:0.21768682px;stroke-linecap:butt;stroke-linejoin:miter;stroke-opacity:1"
       d="m 28.575,197.51668 v 46.56666"
       id="path821-5"
       inkscape:connector-curvature="0" />
    <path
       style="fill:none;stroke:#000000;stroke-width:0.21768682px;stroke-linecap:butt;stroke-linejoin:miter;stroke-opacity:1"
       d="m 34.924999,197.51668 v 46.56666"
       id="path821-9"
       inkscape:connector-curvature="0" />
    <path
       style="fill:none;stroke:#000000;stroke-width:0.21768682px;stroke-linecap:butt;stroke-linejoin:miter;stroke-opacity:1"
       d="m 41.539582,197.51668 v 46.56666"
       id="path821-5-6"
       inkscape:connector-curvature="0" />
    <path
       style="fill:none;stroke:#000000;stroke-width:0.21768682px;stroke-linecap:butt;stroke-linejoin:miter;stroke-opacity:1"
       d="m 48.154165,197.51668 v 46.56666"
       id="path821-3"
       inkscape:connector-curvature="0" />
    <path
       style="fill:none;stroke:#000000;stroke-width:0.21768682px;stroke-linecap:butt;stroke-linejoin:miter;stroke-opacity:1"
       d="m 54.768749,197.51668 v 46.56666"
       id="path821-5-0"
       inkscape:connector-curvature="0" />
    <path
       style="fill:none;stroke:#000000;stroke-width:0.21768682px;stroke-linecap:butt;stroke-linejoin:miter;stroke-opacity:1"
       d="m 70.114583,197.51668 v 46.56666"
       id="path821-5-6-3"
       inkscape:connector-curvature="0" />
    <path
       style="fill:none;stroke:#000000;stroke-width:0.21768682px;stroke-linecap:butt;stroke-linejoin:miter;stroke-opacity:1"
       d="m 76.729167,197.51668 v 46.56666"
       id="path821-1"
       inkscape:connector-curvature="0" />
    <path
       style="fill:none;stroke:#000000;stroke-width:0.21768682px;stroke-linecap:butt;stroke-linejoin:miter;stroke-opacity:1"
       d="m 83.34375,197.51668 v 46.56666"
       id="path821-5-4"
       inkscape:connector-curvature="0" />
    <path
       style="fill:none;stroke:#000000;stroke-width:0.21768682px;stroke-linecap:butt;stroke-linejoin:miter;stroke-opacity:1"
       d="m 89.958333,197.51668 v 46.56666"
       id="path821-9-8"
       inkscape:connector-curvature="0" />
    <path
       style="fill:none;stroke:#000000;stroke-width:0.21768682px;stroke-linecap:butt;stroke-linejoin:miter;stroke-opacity:1"
       d="m 96.572917,197.51668 v 46.56666"
       id="path821-5-6-34"
       inkscape:connector-curvature="0" />
    <path
       style="fill:none;stroke:#000000;stroke-width:0.21768698px;stroke-linecap:butt;stroke-linejoin:miter;stroke-opacity:1"
       d="m 103.1875,197.5166 v 46.56674"
       id="path821-3-7"
       inkscape:connector-curvature="0" />
    <path
       style="fill:none;stroke:#000000;stroke-width:0.19155136px;stroke-linecap:butt;stroke-linejoin:miter;stroke-opacity:1"
       d="M 15.081256,204.13126 H 115.62292"
       id="path1024"
       inkscape:connector-curvature="0" />
    <path
       style="fill:none;stroke:#000000;stroke-width:0.19155136px;stroke-linecap:butt;stroke-linejoin:miter;stroke-opacity:1"
       d="M 15.081256,210.74583 H 115.62292"
       id="path1024-8"
       inkscape:connector-curvature="0" />
    <path
       style="fill:none;stroke:#000000;stroke-width:0.19155136px;stroke-linecap:butt;stroke-linejoin:miter;stroke-opacity:1"
       d="M 15.081256,217.36041 H 115.62292"
       id="path1024-7"
       inkscape:connector-curvature="0" />
    <path
       style="fill:none;stroke:#000000;stroke-width:0.19155136px;stroke-linecap:butt;stroke-linejoin:miter;stroke-opacity:1"
       d="M 15.081256,230.8542 H 115.62292"
       id="path1024-8-9"
       inkscape:connector-curvature="0" />
    <circle
       style="fill:#000000;fill-opacity:1;stroke:#000000;stroke-width:0.0634501;stroke-miterlimit:4;stroke-dasharray:none;stroke-opacity:1"
       id="path817-4"
       cx="25.0474"
       cy="200.83151"
       r="0.73485869" />
    <circle
       style="fill:#000000;fill-opacity:1;stroke:#000000;stroke-width:0.0634501;stroke-miterlimit:4;stroke-dasharray:none;stroke-opacity:1"
       id="path817-4-7"
       cx="31.628912"
       cy="200.83151"
       r="0.73485869" />
    <circle
       style="fill:#000000;fill-opacity:1;stroke:#000000;stroke-width:0.0634501;stroke-miterlimit:4;stroke-dasharray:none;stroke-opacity:1"
       id="path817-4-79"
       cx="38.249706"
       cy="200.79811"
       r="0.73485869" />
    <circle
       style="fill:#000000;fill-opacity:1;stroke:#000000;stroke-width:0.0634501;stroke-miterlimit:4;stroke-dasharray:none;stroke-opacity:1"
       id="path817-4-79-7"
       cx="44.851192"
       cy="200.79089"
       r="0.73485869" />
    <circle
       style="fill:#000000;fill-opacity:1;stroke:#000000;stroke-width:0.0634501;stroke-miterlimit:4;stroke-dasharray:none;stroke-opacity:1"
       id="path817-1"
       cx="18.385639"
       cy="207.45947"
       r="0.73485869" />
    <circle
       style="fill:#000000;fill-opacity:1;stroke:#000000;stroke-width:0.0634501;stroke-miterlimit:4;stroke-dasharray:none;stroke-opacity:1"
       id="path817-4-8"
       cx="25.013655"
       cy="207.45947"
       r="0.73485869" />
    <circle
       style="fill:#000000;fill-opacity:1;stroke:#000000;stroke-width:0.0634501;stroke-miterlimit:4;stroke-dasharray:none;stroke-opacity:1"
       id="path817-4-7-2"
       cx="31.595169"
       cy="207.45947"
       r="0.73485869" />
    <circle
       style="fill:#000000;fill-opacity:1;stroke:#000000;stroke-width:0.0634501;stroke-miterlimit:4;stroke-dasharray:none;stroke-opacity:1"
       id="path817-4-79-9"
       cx="38.215961"
       cy="207.42607"
       r="0.73485869" />
    <circle
       style="fill:#000000;fill-opacity:1;stroke:#000000;stroke-width:0.0634501;stroke-miterlimit:4;stroke-dasharray:none;stroke-opacity:1"
       id="path817-4-79-7-6"
       cx="44.817451"
       cy="207.41884"
       r="0.73485869" />
    <circle
       style="fill:#000000;fill-opacity:1;stroke:#000000;stroke-width:0.0634501;stroke-miterlimit:4;stroke-dasharray:none;stroke-opacity:1"
       id="path817-1-2"
       cx="18.418373"
       cy="214.14769"
       r="0.73485869" />
    <circle
       style="fill:#000000;fill-opacity:1;stroke:#000000;stroke-width:0.0634501;stroke-miterlimit:4;stroke-dasharray:none;stroke-opacity:1"
       id="path817-4-8-6"
       cx="25.046391"
       cy="214.14769"
       r="0.73485869" />
    <circle
       style="fill:#000000;fill-opacity:1;stroke:#000000;stroke-width:0.0634501;stroke-miterlimit:4;stroke-dasharray:none;stroke-opacity:1"
       id="path817-4-7-2-0"
       cx="31.627903"
       cy="214.14769"
       r="0.73485869" />
    <circle
       style="fill:#000000;fill-opacity:1;stroke:#000000;stroke-width:0.0634501;stroke-miterlimit:4;stroke-dasharray:none;stroke-opacity:1"
       id="path817-4-79-9-4"
       cx="38.248695"
       cy="214.11426"
       r="0.73485869" />
    <circle
       style="fill:#000000;fill-opacity:1;stroke:#000000;stroke-width:0.0634501;stroke-miterlimit:4;stroke-dasharray:none;stroke-opacity:1"
       id="path817-4-79-7-6-8"
       cx="44.850185"
       cy="214.10699"
       r="0.73485869" />
    <circle
       style="fill:#000000;fill-opacity:1;stroke:#000000;stroke-width:0.0634501;stroke-miterlimit:4;stroke-dasharray:none;stroke-opacity:1"
       id="path817-1-2-7"
       cx="18.477633"
       cy="227.5479"
       r="0.73485869" />
    <circle
       style="fill:#000000;fill-opacity:1;stroke:#000000;stroke-width:0.0634501;stroke-miterlimit:4;stroke-dasharray:none;stroke-opacity:1"
       id="path817-4-8-6-3"
       cx="25.105648"
       cy="227.5479"
       r="0.73485869" />
    <circle
       style="fill:#000000;fill-opacity:1;stroke:#000000;stroke-width:0.0634501;stroke-miterlimit:4;stroke-dasharray:none;stroke-opacity:1"
       id="path817-4-7-2-0-9"
       cx="31.68716"
       cy="227.5479"
       r="0.73485869" />
    <circle
       style="fill:#000000;fill-opacity:1;stroke:#000000;stroke-width:0.0634501;stroke-miterlimit:4;stroke-dasharray:none;stroke-opacity:1"
       id="path817-4-79-9-4-9"
       cx="38.307957"
       cy="227.51448"
       r="0.73485869" />
    <circle
       style="fill:#000000;fill-opacity:1;stroke:#000000;stroke-width:0.0634501;stroke-miterlimit:4;stroke-dasharray:none;stroke-opacity:1"
       id="path817-4-79-7-6-8-3"
       cx="44.909447"
       cy="227.50726"
       r="0.73485869" />
    <circle
       style="fill:#000000;fill-opacity:1;stroke:#000000;stroke-width:0.0634501;stroke-miterlimit:4;stroke-dasharray:none;stroke-opacity:1"
       id="path817-1-2-7-0"
       cx="18.456642"
       cy="234.23616"
       r="0.73485869" />
    <circle
       style="fill:#000000;fill-opacity:1;stroke:#000000;stroke-width:0.0634501;stroke-miterlimit:4;stroke-dasharray:none;stroke-opacity:1"
       id="path817-4-8-6-3-8"
       cx="25.084658"
       cy="234.23616"
       r="0.73485869" />
    <circle
       style="fill:#000000;fill-opacity:1;stroke:#000000;stroke-width:0.0634501;stroke-miterlimit:4;stroke-dasharray:none;stroke-opacity:1"
       id="path817-4-7-2-0-9-2"
       cx="31.66617"
       cy="234.23616"
       r="0.73485869" />
    <circle
       style="fill:#000000;fill-opacity:1;stroke:#000000;stroke-width:0.0634501;stroke-miterlimit:4;stroke-dasharray:none;stroke-opacity:1"
       id="path817-4-79-9-4-9-5"
       cx="38.286968"
       cy="234.20276"
       r="0.73485869" />
    <circle
       style="fill:#000000;fill-opacity:1;stroke:#000000;stroke-width:0.0634501;stroke-miterlimit:4;stroke-dasharray:none;stroke-opacity:1"
       id="path817-4-79-7-6-8-3-7"
       cx="44.888458"
       cy="234.19553"
       r="0.73485869" />
    <circle
       style="fill:#000000;fill-opacity:1;stroke:#000000;stroke-width:0.0634501;stroke-miterlimit:4;stroke-dasharray:none;stroke-opacity:1"
       id="path817-17"
       cx="51.586792"
       cy="200.83151"
       r="0.73485869" />
    <circle
       style="fill:#000000;fill-opacity:1;stroke:#000000;stroke-width:0.0634501;stroke-miterlimit:4;stroke-dasharray:none;stroke-opacity:1"
       id="path817-4-6"
       cx="58.214806"
       cy="200.83151"
       r="0.73485869" />
    <circle
       style="fill:#000000;fill-opacity:1;stroke:#000000;stroke-width:0.0634501;stroke-miterlimit:4;stroke-dasharray:none;stroke-opacity:1"
       id="path817-4-7-1"
       cx="73.262993"
       cy="200.83151"
       r="0.73485869" />
    <circle
       style="fill:#000000;fill-opacity:1;stroke:#000000;stroke-width:0.0634501;stroke-miterlimit:4;stroke-dasharray:none;stroke-opacity:1"
       id="path817-4-79-1"
       cx="79.883797"
       cy="200.79811"
       r="0.73485869" />
    <circle
       style="fill:#000000;fill-opacity:1;stroke:#000000;stroke-width:0.0634501;stroke-miterlimit:4;stroke-dasharray:none;stroke-opacity:1"
       id="path817-4-79-7-5"
       cx="86.485283"
       cy="200.79089"
       r="0.73485869" />
    <circle
       style="fill:#000000;fill-opacity:1;stroke:#000000;stroke-width:0.0634501;stroke-miterlimit:4;stroke-dasharray:none;stroke-opacity:1"
       id="path817-1-9"
       cx="51.553047"
       cy="207.45947"
       r="0.73485869" />
    <circle
       style="fill:#000000;fill-opacity:1;stroke:#000000;stroke-width:0.0634501;stroke-miterlimit:4;stroke-dasharray:none;stroke-opacity:1"
       id="path817-4-8-2"
       cx="58.181061"
       cy="207.45947"
       r="0.73485869" />
    <circle
       style="fill:#000000;fill-opacity:1;stroke:#000000;stroke-width:0.0634501;stroke-miterlimit:4;stroke-dasharray:none;stroke-opacity:1"
       id="path817-4-7-2-6"
       cx="73.229256"
       cy="207.45947"
       r="0.73485869" />
    <circle
       style="fill:#000000;fill-opacity:1;stroke:#000000;stroke-width:0.0634501;stroke-miterlimit:4;stroke-dasharray:none;stroke-opacity:1"
       id="path817-4-79-9-0"
       cx="79.850052"
       cy="207.42607"
       r="0.73485869" />
    <circle
       style="fill:#000000;fill-opacity:1;stroke:#000000;stroke-width:0.0634501;stroke-miterlimit:4;stroke-dasharray:none;stroke-opacity:1"
       id="path817-4-79-7-6-3"
       cx="86.451546"
       cy="207.41884"
       r="0.73485869" />
    <circle
       style="fill:#000000;fill-opacity:1;stroke:#000000;stroke-width:0.0634501;stroke-miterlimit:4;stroke-dasharray:none;stroke-opacity:1"
       id="path817-1-2-77"
       cx="51.585781"
       cy="214.14769"
       r="0.73485869" />
    <circle
       style="fill:#000000;fill-opacity:1;stroke:#000000;stroke-width:0.0634501;stroke-miterlimit:4;stroke-dasharray:none;stroke-opacity:1"
       id="path817-4-8-6-9"
       cx="58.213799"
       cy="214.14769"
       r="0.73485869" />
    <circle
       style="fill:#000000;fill-opacity:1;stroke:#000000;stroke-width:0.0634501;stroke-miterlimit:4;stroke-dasharray:none;stroke-opacity:1"
       id="path817-4-7-2-0-3"
       cx="73.261986"
       cy="214.14769"
       r="0.73485869" />
    <circle
       style="fill:#000000;fill-opacity:1;stroke:#000000;stroke-width:0.0634501;stroke-miterlimit:4;stroke-dasharray:none;stroke-opacity:1"
       id="path817-4-79-9-4-0"
       cx="79.882782"
       cy="214.11426"
       r="0.73485869" />
    <circle
       style="fill:#000000;fill-opacity:1;stroke:#000000;stroke-width:0.0634501;stroke-miterlimit:4;stroke-dasharray:none;stroke-opacity:1"
       id="path817-4-79-7-6-8-9"
       cx="86.484276"
       cy="214.10699"
       r="0.73485869" />
    <circle
       style="fill:#000000;fill-opacity:1;stroke:#000000;stroke-width:0.0634501;stroke-miterlimit:4;stroke-dasharray:none;stroke-opacity:1"
       id="path817-1-2-7-1"
       cx="51.645039"
       cy="227.5479"
       r="0.73485869" />
    <circle
       style="fill:#000000;fill-opacity:1;stroke:#000000;stroke-width:0.0634501;stroke-miterlimit:4;stroke-dasharray:none;stroke-opacity:1"
       id="path817-4-8-6-3-4"
       cx="58.273056"
       cy="227.5479"
       r="0.73485869" />
    <circle
       style="fill:#000000;fill-opacity:1;stroke:#000000;stroke-width:0.0634501;stroke-miterlimit:4;stroke-dasharray:none;stroke-opacity:1"
       id="path817-4-7-2-0-9-24"
       cx="73.321243"
       cy="227.5479"
       r="0.73485869" />
    <circle
       style="fill:#000000;fill-opacity:1;stroke:#000000;stroke-width:0.0634501;stroke-miterlimit:4;stroke-dasharray:none;stroke-opacity:1"
       id="path817-4-79-9-4-9-40"
       cx="79.942047"
       cy="227.51448"
       r="0.73485869" />
    <circle
       style="fill:#000000;fill-opacity:1;stroke:#000000;stroke-width:0.0634501;stroke-miterlimit:4;stroke-dasharray:none;stroke-opacity:1"
       id="path817-4-79-7-6-8-3-2"
       cx="86.543541"
       cy="227.50728"
       r="0.73485869" />
    <circle
       style="fill:#000000;fill-opacity:1;stroke:#000000;stroke-width:0.0634501;stroke-miterlimit:4;stroke-dasharray:none;stroke-opacity:1"
       id="path817-1-2-7-0-4"
       cx="51.62405"
       cy="234.23616"
       r="0.73485869" />
    <circle
       style="fill:#000000;fill-opacity:1;stroke:#000000;stroke-width:0.0634501;stroke-miterlimit:4;stroke-dasharray:none;stroke-opacity:1"
       id="path817-4-8-6-3-8-2"
       cx="58.252064"
       cy="234.23616"
       r="0.73485869" />
    <circle
       style="fill:#000000;fill-opacity:1;stroke:#000000;stroke-width:0.0634501;stroke-miterlimit:4;stroke-dasharray:none;stroke-opacity:1"
       id="path817-4-7-2-0-9-2-2"
       cx="73.300255"
       cy="234.23616"
       r="0.73485869" />
    <circle
       style="fill:#000000;fill-opacity:1;stroke:#000000;stroke-width:0.0634501;stroke-miterlimit:4;stroke-dasharray:none;stroke-opacity:1"
       id="path817-4-79-9-4-9-5-3"
       cx="79.921059"
       cy="234.20276"
       r="0.73485869" />
    <circle
       style="fill:#000000;fill-opacity:1;stroke:#000000;stroke-width:0.0634501;stroke-miterlimit:4;stroke-dasharray:none;stroke-opacity:1"
       id="path817-4-79-7-6-8-3-7-7"
       cx="86.522552"
       cy="234.19553"
       r="0.73485869" />
    <circle
       style="fill:#000000;fill-opacity:1;stroke:#000000;stroke-width:0.0634501;stroke-miterlimit:4;stroke-dasharray:none;stroke-opacity:1"
       id="path817-24"
       cx="93.031898"
       cy="200.83151"
       r="0.73485869" />
    <circle
       style="fill:#000000;fill-opacity:1;stroke:#000000;stroke-width:0.0634501;stroke-miterlimit:4;stroke-dasharray:none;stroke-opacity:1"
       id="path817-4-76"
       cx="99.65992"
       cy="200.83151"
       r="0.73485869" />
    <circle
       style="fill:#000000;fill-opacity:1;stroke:#000000;stroke-width:0.0634501;stroke-miterlimit:4;stroke-dasharray:none;stroke-opacity:1"
       id="path817-4-7-7"
       cx="106.24142"
       cy="200.83151"
       r="0.73485869" />
    <circle
       style="fill:#000000;fill-opacity:1;stroke:#000000;stroke-width:0.0634501;stroke-miterlimit:4;stroke-dasharray:none;stroke-opacity:1"
       id="path817-4-79-13"
       cx="112.86221"
       cy="200.79811"
       r="0.73485869" />
    <circle
       style="fill:#000000;fill-opacity:1;stroke:#000000;stroke-width:0.0634501;stroke-miterlimit:4;stroke-dasharray:none;stroke-opacity:1"
       id="path817-1-4"
       cx="92.998154"
       cy="207.4594"
       r="0.73485869" />
    <circle
       style="fill:#000000;fill-opacity:1;stroke:#000000;stroke-width:0.0634501;stroke-miterlimit:4;stroke-dasharray:none;stroke-opacity:1"
       id="path817-4-8-81"
       cx="99.626175"
       cy="207.4594"
       r="0.73485869" />
    <circle
       style="fill:#000000;fill-opacity:1;stroke:#000000;stroke-width:0.0634501;stroke-miterlimit:4;stroke-dasharray:none;stroke-opacity:1"
       id="path817-4-7-2-3"
       cx="106.20769"
       cy="207.4594"
       r="0.73485869" />
    <circle
       style="fill:#000000;fill-opacity:1;stroke:#000000;stroke-width:0.0634501;stroke-miterlimit:4;stroke-dasharray:none;stroke-opacity:1"
       id="path817-4-79-9-1"
       cx="112.82848"
       cy="207.42607"
       r="0.73485869" />
    <circle
       style="fill:#000000;fill-opacity:1;stroke:#000000;stroke-width:0.0634501;stroke-miterlimit:4;stroke-dasharray:none;stroke-opacity:1"
       id="path817-1-2-70"
       cx="93.030891"
       cy="214.14769"
       r="0.73485869" />
    <circle
       style="fill:#000000;fill-opacity:1;stroke:#000000;stroke-width:0.0634501;stroke-miterlimit:4;stroke-dasharray:none;stroke-opacity:1"
       id="path817-4-8-6-96"
       cx="99.658905"
       cy="214.14769"
       r="0.73485869" />
    <circle
       style="fill:#000000;fill-opacity:1;stroke:#000000;stroke-width:0.0634501;stroke-miterlimit:4;stroke-dasharray:none;stroke-opacity:1"
       id="path817-4-7-2-0-5"
       cx="106.24042"
       cy="214.14769"
       r="0.73485869" />
    <circle
       style="fill:#000000;fill-opacity:1;stroke:#000000;stroke-width:0.0634501;stroke-miterlimit:4;stroke-dasharray:none;stroke-opacity:1"
       id="path817-4-79-9-4-5"
       cx="112.86118"
       cy="214.11426"
       r="0.73485869" />
    <circle
       style="fill:#000000;fill-opacity:1;stroke:#000000;stroke-width:0.0634501;stroke-miterlimit:4;stroke-dasharray:none;stroke-opacity:1"
       id="path817-1-2-7-8"
       cx="93.090149"
       cy="227.5479"
       r="0.73485869" />
    <circle
       style="fill:#000000;fill-opacity:1;stroke:#000000;stroke-width:0.0634501;stroke-miterlimit:4;stroke-dasharray:none;stroke-opacity:1"
       id="path817-4-8-6-3-5"
       cx="99.718163"
       cy="227.5479"
       r="0.73485869" />
    <circle
       style="fill:#000000;fill-opacity:1;stroke:#000000;stroke-width:0.0634501;stroke-miterlimit:4;stroke-dasharray:none;stroke-opacity:1"
       id="path817-4-7-2-0-9-4"
       cx="106.29967"
       cy="227.5479"
       r="0.73485869" />
    <circle
       style="fill:#000000;fill-opacity:1;stroke:#000000;stroke-width:0.0634501;stroke-miterlimit:4;stroke-dasharray:none;stroke-opacity:1"
       id="path817-4-79-9-4-9-6"
       cx="112.92049"
       cy="227.51448"
       r="0.73485869" />
    <circle
       style="fill:#000000;fill-opacity:1;stroke:#000000;stroke-width:0.0634501;stroke-miterlimit:4;stroke-dasharray:none;stroke-opacity:1"
       id="path817-1-2-7-0-1"
       cx="93.06916"
       cy="234.23616"
       r="0.73485869" />
    <circle
       style="fill:#000000;fill-opacity:1;stroke:#000000;stroke-width:0.0634501;stroke-miterlimit:4;stroke-dasharray:none;stroke-opacity:1"
       id="path817-4-8-6-3-8-1"
       cx="99.697174"
       cy="234.23616"
       r="0.73485869" />
    <circle
       style="fill:#000000;fill-opacity:1;stroke:#000000;stroke-width:0.0634501;stroke-miterlimit:4;stroke-dasharray:none;stroke-opacity:1"
       id="path817-4-7-2-0-9-2-6"
       cx="106.27869"
       cy="234.23616"
       r="0.73485869" />
    <circle
       style="fill:#000000;fill-opacity:1;stroke:#000000;stroke-width:0.0634501;stroke-miterlimit:4;stroke-dasharray:none;stroke-opacity:1"
       id="path817-4-79-9-4-9-5-4"
       cx="112.89948"
       cy="234.20276"
       r="0.73485869" />
    <path
       style="fill:none;stroke:#000000;stroke-width:0.22756213;stroke-linecap:butt;stroke-linejoin:miter;stroke-miterlimit:4;stroke-dasharray:none;stroke-opacity:1;marker-start:url(#Arrow1Mstart);marker-end:url(#Arrow1Mend)"
       d="m 20.302578,252.41256 v 37.96927 h 45.223349"
       id="path4814"
       inkscape:connector-curvature="0" />
    <rect
       style="fill:none;fill-opacity:1;stroke:#000000;stroke-width:0.28211957;stroke-miterlimit:4;stroke-dasharray:none;stroke-dashoffset:0;stroke-opacity:1"
       id="rect5252"
       width="31.065769"
       height="31.065769"
       x="29.762764"
       y="255.23512" />
    <path
       style="fill:none;stroke:#000000;stroke-width:0.3417156;stroke-linecap:butt;stroke-linejoin:miter;stroke-miterlimit:4;stroke-dasharray:none;stroke-opacity:1"
       d="M 61.001113,270.85602 H 29.676458"
       id="path5254"
       inkscape:connector-curvature="0" />
    <path
       style="fill:none;stroke:#000000;stroke-width:0.3417156;stroke-linecap:butt;stroke-linejoin:miter;stroke-miterlimit:4;stroke-dasharray:none;stroke-opacity:1"
       d="M 45.511378,286.51834 V 255.19369"
       id="path5254-8"
       inkscape:connector-curvature="0" />
    <path
       style="fill:none;stroke:#000000;stroke-width:0.3417156;stroke-linecap:butt;stroke-linejoin:miter;stroke-miterlimit:4;stroke-dasharray:1.02514674, 0.34171558;stroke-dashoffset:0;stroke-opacity:1"
       d="M 37.701786,286.21632 V 254.89166"
       id="path5254-8-9"
       inkscape:connector-curvature="0" />
    <path
       style="fill:none;stroke:#000000;stroke-width:0.3417156;stroke-linecap:butt;stroke-linejoin:miter;stroke-miterlimit:4;stroke-dasharray:1.02514675, 0.34171558;stroke-dashoffset:0;stroke-opacity:1"
       d="M 53.062107,286.38894 V 255.06428"
       id="path5254-8-9-7"
       inkscape:connector-curvature="0" />
    <path
       style="fill:none;stroke:#000000;stroke-width:0.3417156;stroke-linecap:butt;stroke-linejoin:miter;stroke-miterlimit:4;stroke-dasharray:1.02514676, 0.34171558;stroke-dashoffset:0;stroke-opacity:1"
       d="M 29.633332,263.13276 H 60.957951"
       id="path5254-8-9-7-3"
       inkscape:connector-curvature="0" />
    <path
       style="fill:none;stroke:#000000;stroke-width:0.3417156;stroke-linecap:butt;stroke-linejoin:miter;stroke-miterlimit:4;stroke-dasharray:1.02514677, 0.34171558;stroke-dashoffset:0;stroke-opacity:1"
       d="M 29.762755,278.19099 H 61.087366"
       id="path5254-8-9-7-3-6"
       inkscape:connector-curvature="0" />
    <text
       xml:space="preserve"
       style="font-style:normal;font-variant:normal;font-weight:normal;font-stretch:normal;font-size:3.45175219px;line-height:1.25;font-family:sans-serif;-inkscape-font-specification:sans-serif;letter-spacing:0px;word-spacing:0px;fill:#000000;fill-opacity:1;stroke:none;stroke-width:0.0862938"
       x="42.06424"
       y="262.20065"
       id="text5333"><tspan
         sodipodi:role="line"
         id="tspan5331"
         x="42.06424"
         y="262.20065"
         style="font-style:normal;font-variant:normal;font-weight:normal;font-stretch:normal;font-size:2.53128529px;font-family:'Palatino Linotype';-inkscape-font-specification:'Palatino Linotype';stroke-width:0.0862938">a<tspan
   style="font-style:normal;font-variant:normal;font-weight:normal;font-stretch:normal;font-size:2.53128529px;font-family:'Palatino Linotype';-inkscape-font-specification:'Palatino Linotype';baseline-shift:sub;stroke-width:0.0862938"
   id="tspan5335">t</tspan></tspan></text>
    <text
       xml:space="preserve"
       style="font-style:normal;font-variant:normal;font-weight:normal;font-stretch:normal;font-size:3.45175219px;line-height:1.25;font-family:sans-serif;-inkscape-font-specification:sans-serif;letter-spacing:0px;word-spacing:0px;fill:#000000;fill-opacity:1;stroke:none;stroke-width:0.0862938"
       x="46.309246"
       y="281.22174"
       id="text5333-1"><tspan
         sodipodi:role="line"
         id="tspan5331-2"
         x="46.309246"
         y="281.22174"
         style="font-style:normal;font-variant:normal;font-weight:normal;font-stretch:normal;font-size:2.53128529px;font-family:'Palatino Linotype';-inkscape-font-specification:'Palatino Linotype';stroke-width:0.0862938">a<tspan
   style="font-style:normal;font-variant:normal;font-weight:normal;font-stretch:normal;font-size:1.64533532px;font-family:'Palatino Linotype';-inkscape-font-specification:'Palatino Linotype';baseline-shift:sub;stroke-width:0.0862938"
   id="tspan5358">b</tspan></tspan></text>
    <text
       xml:space="preserve"
       style="font-style:normal;font-variant:normal;font-weight:normal;font-stretch:normal;font-size:3.45175219px;line-height:1.25;font-family:sans-serif;-inkscape-font-specification:sans-serif;letter-spacing:0px;word-spacing:0px;fill:#000000;fill-opacity:1;stroke:none;stroke-width:0.0862938"
       x="34.055542"
       y="273.11002"
       id="text5333-1-3"><tspan
         sodipodi:role="line"
         id="tspan5331-2-1"
         x="34.055542"
         y="273.11002"
         style="font-style:normal;font-variant:normal;font-weight:normal;font-stretch:normal;font-size:2.53128529px;font-family:'Palatino Linotype';-inkscape-font-specification:'Palatino Linotype';stroke-width:0.0862938">a<tspan
   style="font-style:normal;font-variant:normal;font-weight:normal;font-stretch:normal;font-size:1.64533532px;font-family:'Palatino Linotype';-inkscape-font-specification:'Palatino Linotype';baseline-shift:sub;stroke-width:0.0862938"
   id="tspan5385">w</tspan></tspan></text>
    <text
       xml:space="preserve"
       style="font-style:normal;font-variant:normal;font-weight:normal;font-stretch:normal;font-size:3.45175219px;line-height:1.25;font-family:sans-serif;-inkscape-font-specification:sans-serif;letter-spacing:0px;word-spacing:0px;fill:#000000;fill-opacity:1;stroke:none;stroke-width:0.0862938"
       x="54.075718"
       y="269.1402"
       id="text5333-1-3-4"><tspan
         sodipodi:role="line"
         id="tspan5331-2-1-7"
         x="54.075718"
         y="269.1402"
         style="font-style:normal;font-variant:normal;font-weight:normal;font-stretch:normal;font-size:2.53128529px;font-family:'Palatino Linotype';-inkscape-font-specification:'Palatino Linotype';stroke-width:0.0862938">a<tspan
   style="font-style:normal;font-variant:normal;font-weight:normal;font-stretch:normal;font-size:1.64533532px;font-family:'Palatino Linotype';-inkscape-font-specification:'Palatino Linotype';baseline-shift:sub;stroke-width:0.0862938"
   id="tspan5408">e</tspan></tspan></text>
    <circle
       style="fill:#000000;fill-opacity:1;stroke:none;stroke-width:0.0729659;stroke-miterlimit:4;stroke-dasharray:none;stroke-dashoffset:0;stroke-opacity:1"
       id="path5410"
       cx="45.505939"
       cy="255.16908"
       r="0.82917696" />
    <circle
       style="fill:#000000;fill-opacity:1;stroke:none;stroke-width:0.0729659;stroke-miterlimit:4;stroke-dasharray:none;stroke-dashoffset:0;stroke-opacity:1"
       id="path5410-4"
       cx="45.444302"
       cy="270.94858"
       r="0.82917696" />
    <circle
       style="fill:#000000;fill-opacity:1;stroke:none;stroke-width:0.0729659;stroke-miterlimit:4;stroke-dasharray:none;stroke-dashoffset:0;stroke-opacity:1"
       id="path5410-5"
       cx="60.853905"
       cy="270.82526"
       r="0.82917696" />
    <circle
       style="fill:#000000;fill-opacity:1;stroke:none;stroke-width:0.0729659;stroke-miterlimit:4;stroke-dasharray:none;stroke-dashoffset:0;stroke-opacity:1"
       id="path5410-0"
       cx="29.66486"
       cy="270.82526"
       r="0.82917696" />
    <circle
       style="fill:#000000;fill-opacity:1;stroke:none;stroke-width:0.0729659;stroke-miterlimit:4;stroke-dasharray:none;stroke-dashoffset:0;stroke-opacity:1"
       id="path5410-3"
       cx="45.567585"
       cy="286.29688"
       r="0.82917696" />
    <circle
       style="fill:#ff0000;fill-opacity:1;stroke:none;stroke-width:0.0729659;stroke-miterlimit:4;stroke-dasharray:none;stroke-dashoffset:0;stroke-opacity:1"
       id="path5410-5-6"
       cx="45.56757"
       cy="263.10791"
       r="0.82917696" />
    <circle
       style="fill:#ff0000;fill-opacity:1;stroke:none;stroke-width:0.0729659;stroke-miterlimit:4;stroke-dasharray:none;stroke-dashoffset:0;stroke-opacity:1"
       id="path5410-5-6-0"
       cx="37.677856"
       cy="270.81293"
       r="0.82917696" />
    <circle
       style="fill:#ff0000;fill-opacity:1;stroke:none;stroke-width:0.0729659;stroke-miterlimit:4;stroke-dasharray:none;stroke-dashoffset:0;stroke-opacity:1"
       id="path5410-5-6-6"
       cx="45.56757"
       cy="278.19745"
       r="0.82917696" />
    <circle
       style="fill:#ff0000;fill-opacity:1;stroke:none;stroke-width:0.0729659;stroke-miterlimit:4;stroke-dasharray:none;stroke-dashoffset:0;stroke-opacity:1"
       id="path5410-5-6-3"
       cx="53.149082"
       cy="270.73898"
       r="0.82917696" />
    <text
       xml:space="preserve"
       style="font-style:normal;font-variant:normal;font-weight:normal;font-stretch:normal;font-size:9.96425533px;line-height:1.25;font-family:sans-serif;-inkscape-font-specification:sans-serif;letter-spacing:0px;word-spacing:0px;fill:#000000;fill-opacity:1;stroke:none;stroke-width:0.47075221;stroke-miterlimit:4;stroke-dasharray:none"
       x="487.42697"
       y="-24.126354"
       id="text5495"
       transform="matrix(0,0.59577333,-1.6784907,0,0,0)"><tspan
         sodipodi:role="line"
         id="tspan5493"
         x="487.42697"
         y="-24.126354"
         style="font-size:9.96425533px;stroke-width:0.47075221;stroke-miterlimit:4;stroke-dasharray:none">}</tspan></text>
    <text
       xml:space="preserve"
       style="font-style:normal;font-variant:normal;font-weight:normal;font-stretch:normal;font-size:9.96425533px;line-height:1.25;font-family:sans-serif;-inkscape-font-specification:sans-serif;letter-spacing:0px;word-spacing:0px;fill:#000000;fill-opacity:1;stroke:none;stroke-width:0.47075221;stroke-miterlimit:4;stroke-dasharray:none"
       x="-33.862415"
       y="-153.55757"
       id="text5495-2"
       transform="scale(-0.59577333,-1.6784907)"><tspan
         sodipodi:role="line"
         id="tspan5493-0"
         x="-33.862415"
         y="-153.55757"
         style="font-size:9.96425533px;fill:#000000;fill-opacity:1;stroke-width:0.47075221;stroke-miterlimit:4;stroke-dasharray:none">}</tspan></text>
    <text
       xml:space="preserve"
       style="font-style:normal;font-variant:normal;font-weight:normal;font-stretch:normal;font-size:2.55327868px;line-height:1.25;font-family:sans-serif;-inkscape-font-specification:sans-serif;letter-spacing:0px;word-spacing:0px;fill:#000000;fill-opacity:1;stroke:none;stroke-width:0.06383197"
       x="43.749378"
       y="295.65701"
       id="text5613"><tspan
         sodipodi:role="line"
         id="tspan5611"
         x="43.749378"
         y="295.65701"
         style="font-style:normal;font-variant:normal;font-weight:normal;font-stretch:normal;font-family:'Palatino Linotype';-inkscape-font-specification:'Palatino Linotype';stroke-width:0.06383197">Δx</tspan></text>
    <text
       xml:space="preserve"
       style="font-style:normal;font-variant:normal;font-weight:normal;font-stretch:normal;font-size:2.55327868px;line-height:1.25;font-family:sans-serif;-inkscape-font-specification:sans-serif;letter-spacing:0px;word-spacing:0px;fill:#000000;fill-opacity:1;stroke:none;stroke-width:0.06383197"
       x="13.011602"
       y="263.45755"
       id="text5613-6"><tspan
         sodipodi:role="line"
         id="tspan5611-1"
         x="13.011602"
         y="263.45755"
         style="font-style:normal;font-variant:normal;font-weight:normal;font-stretch:normal;font-family:'Palatino Linotype';-inkscape-font-specification:'Palatino Linotype';stroke-width:0.06383197">Δz</tspan></text>
    <text
       xml:space="preserve"
       style="font-style:normal;font-variant:normal;font-weight:normal;font-stretch:normal;font-size:3.06846404px;line-height:1.25;font-family:sans-serif;-inkscape-font-specification:sans-serif;letter-spacing:0px;word-spacing:0px;fill:#000000;fill-opacity:1;stroke:none;stroke-width:0.0767116"
       x="46.861378"
       y="254.01938"
       id="text5791"><tspan
         sodipodi:role="line"
         id="tspan5789"
         x="46.861378"
         y="254.01938"
         style="font-style:normal;font-variant:normal;font-weight:normal;font-stretch:normal;font-family:'Palatino Linotype';-inkscape-font-specification:'Palatino Linotype';stroke-width:0.0767116">Δq<tspan
   style="font-style:normal;font-variant:normal;font-weight:normal;font-stretch:normal;font-size:1.99450135px;font-family:'Palatino Linotype';-inkscape-font-specification:'Palatino Linotype';baseline-shift:sub;stroke-width:0.0767116"
   id="tspan5793">i-1,k</tspan></tspan></text>
    <text
       xml:space="preserve"
       style="font-style:normal;font-variant:normal;font-weight:normal;font-stretch:normal;font-size:3.07845116px;line-height:1.25;font-family:sans-serif;-inkscape-font-specification:sans-serif;letter-spacing:0px;word-spacing:0px;fill:#000000;fill-opacity:1;stroke:none;stroke-width:0.07696128"
       x="36.819859"
       y="289.13718"
       id="text5791-5"><tspan
         sodipodi:role="line"
         id="tspan5789-5"
         x="36.819859"
         y="289.13718"
         style="font-style:normal;font-variant:normal;font-weight:normal;font-stretch:normal;font-family:'Palatino Linotype';-inkscape-font-specification:'Palatino Linotype';stroke-width:0.07696128">Δq<tspan
   style="font-style:normal;font-variant:normal;font-weight:normal;font-stretch:normal;font-size:2.00099325px;font-family:'Palatino Linotype';-inkscape-font-specification:'Palatino Linotype';baseline-shift:sub;stroke-width:0.07696128"
   id="tspan5793-4">i+1,k</tspan></tspan></text>
    <text
       xml:space="preserve"
       style="font-style:normal;font-variant:normal;font-weight:normal;font-stretch:normal;font-size:2.94734383px;line-height:1.25;font-family:sans-serif;-inkscape-font-specification:sans-serif;letter-spacing:0px;word-spacing:0px;fill:#000000;fill-opacity:1;stroke:none;stroke-width:0.0736836"
       x="20.184114"
       y="286.95715"
       id="text5791-5-7"
       transform="scale(1.0488051,0.95346599)"><tspan
         sodipodi:role="line"
         id="tspan5789-5-6"
         x="20.184114"
         y="286.95715"
         style="font-style:normal;font-variant:normal;font-weight:normal;font-stretch:normal;font-family:'Palatino Linotype';-inkscape-font-specification:'Palatino Linotype';stroke-width:0.0736836">Δq<tspan
   style="font-style:normal;font-variant:normal;font-weight:normal;font-stretch:normal;font-size:1.91577339px;font-family:'Palatino Linotype';-inkscape-font-specification:'Palatino Linotype';baseline-shift:sub;stroke-width:0.0736836"
   id="tspan5793-4-5">i,k-1</tspan></tspan></text>
    <text
       xml:space="preserve"
       style="font-style:normal;font-variant:normal;font-weight:normal;font-stretch:normal;font-size:3.53763771px;line-height:1.25;font-family:sans-serif;-inkscape-font-specification:sans-serif;letter-spacing:0px;word-spacing:0px;fill:#000000;fill-opacity:1;stroke:none;stroke-width:0.08844095"
       x="66.649063"
       y="270.60944"
       id="text5791-5-7-6"><tspan
         sodipodi:role="line"
         id="tspan5789-5-6-9"
         x="66.649063"
         y="270.60944"
         style="font-style:normal;font-variant:normal;font-weight:normal;font-stretch:normal;font-family:'Palatino Linotype';-inkscape-font-specification:'Palatino Linotype';stroke-width:0.08844095">Δq<tspan
   style="font-style:normal;font-variant:normal;font-weight:normal;font-stretch:normal;font-size:2.29946423px;font-family:'Palatino Linotype';-inkscape-font-specification:'Palatino Linotype';baseline-shift:sub;stroke-width:0.08844095"
   id="tspan5793-4-5-3">i,k+1</tspan></tspan></text>
    <text
       xml:space="preserve"
       style="font-style:normal;font-variant:normal;font-weight:normal;font-stretch:normal;font-size:1.91775727px;line-height:1.25;font-family:sans-serif;-inkscape-font-specification:sans-serif;letter-spacing:0px;word-spacing:0px;fill:#000000;fill-opacity:1;stroke:none;stroke-width:0.04794393"
       x="45.992916"
       y="270.00732"
       id="text5791-5-7-6-7"><tspan
         sodipodi:role="line"
         id="tspan5789-5-6-9-4"
         x="45.992916"
         y="270.00732"
         style="font-style:normal;font-variant:normal;font-weight:normal;font-stretch:normal;font-family:'Palatino Linotype';-inkscape-font-specification:'Palatino Linotype';stroke-width:0.04794393">Δq<tspan
   style="font-style:normal;font-variant:normal;font-weight:normal;font-stretch:normal;font-size:1.24654222px;font-family:'Palatino Linotype';-inkscape-font-specification:'Palatino Linotype';baseline-shift:sub;stroke-width:0.04794393"
   id="tspan5793-4-5-3-5">i,k</tspan></tspan></text>
    <text
       xml:space="preserve"
       style="font-style:normal;font-variant:normal;font-weight:normal;font-stretch:normal;font-size:4.29893064px;line-height:1.25;font-family:sans-serif;-inkscape-font-specification:sans-serif;letter-spacing:0px;word-spacing:0px;fill:#000000;fill-opacity:1;stroke:none;stroke-width:0.10747327"
       x="17.046436"
       y="254.09291"
       id="text6277"><tspan
         sodipodi:role="line"
         id="tspan6275"
         x="17.046436"
         y="254.09291"
         style="font-style:normal;font-variant:normal;font-weight:normal;font-stretch:normal;font-family:'Palatino Linotype';-inkscape-font-specification:'Palatino Linotype';stroke-width:0.10747327">z</tspan></text>
    <text
       xml:space="preserve"
       style="font-style:normal;font-variant:normal;font-weight:normal;font-stretch:normal;font-size:4.39947605px;line-height:1.25;font-family:sans-serif;-inkscape-font-specification:sans-serif;letter-spacing:0px;word-spacing:0px;fill:#000000;fill-opacity:1;stroke:none;stroke-width:0.10998689"
       x="63.583595"
       y="293.36713"
       id="text6277-4"><tspan
         sodipodi:role="line"
         id="tspan6275-7"
         x="63.583595"
         y="293.36713"
         style="font-style:normal;font-variant:normal;font-weight:normal;font-stretch:normal;font-family:'Palatino Linotype';-inkscape-font-specification:'Palatino Linotype';stroke-width:0.10998689">x</tspan></text>
    <flowRoot
       xml:space="preserve"
       id="flowRoot6363"
       style="font-style:normal;font-variant:normal;font-weight:normal;font-stretch:normal;font-size:40px;line-height:1.25;font-family:'Palatino Linotype';-inkscape-font-specification:'Palatino Linotype';letter-spacing:0px;word-spacing:0px;fill:#000000;fill-opacity:1;stroke:none"
       transform="translate(7.1437493,111.38911)"><flowRegion
         id="flowRegion6365"><rect
           id="rect6367"
           width="290"
           height="210"
           x="250"
           y="313.70078" /></flowRegion><flowPara
         id="flowPara6369" /></flowRoot>    <text
       xml:space="preserve"
       style="font-style:normal;font-variant:normal;font-weight:normal;font-stretch:normal;font-size:6.64236164px;line-height:1.25;font-family:'Palatino Linotype';-inkscape-font-specification:'Palatino Linotype';letter-spacing:0px;word-spacing:0px;fill:#000000;fill-opacity:1;stroke:none;stroke-width:0.16605903"
       x="42.070488"
       y="194.3042"
       id="text8789"><tspan
         sodipodi:role="line"
         id="tspan8787"
         x="42.070488"
         y="194.3042"
         style="stroke-width:0.16605903">Global Memory</tspan></text>
    <text
       xml:space="preserve"
       style="font-style:normal;font-variant:normal;font-weight:normal;font-stretch:normal;font-size:10.58333302px;line-height:1.25;font-family:'Palatino Linotype';-inkscape-font-specification:'Palatino Linotype';letter-spacing:0px;word-spacing:0px;fill:#000000;fill-opacity:1;stroke:none;stroke-width:0.26458332"
       x="4.4979162"
       y="263.13275"
       id="text2419"><tspan
         sodipodi:role="line"
         id="tspan2417"
         x="4.4979162"
         y="272.07913"
         style="stroke-width:0.26458332" /><tspan
         sodipodi:role="line"
         x="4.4979162"
         y="285.30829"
         style="stroke-width:0.26458332"
         id="tspan2421" /></text>
    <path
       style="fill:none;stroke:#000000;stroke-width:0.21768838px;stroke-linecap:butt;stroke-linejoin:miter;stroke-opacity:1"
       d="m 109.27292,197.516 v 46.56734"
       id="path821-3-7-8"
       inkscape:connector-curvature="0" />
    <circle
       style="fill:#000000;fill-opacity:1;stroke:#000000;stroke-width:0.0634501;stroke-miterlimit:4;stroke-dasharray:none;stroke-opacity:1"
       id="path817-1-2-7-0-3"
       cx="18.456642"
       cy="241.18146"
       r="0.73485869" />
    <circle
       style="fill:#000000;fill-opacity:1;stroke:#000000;stroke-width:0.0634501;stroke-miterlimit:4;stroke-dasharray:none;stroke-opacity:1"
       id="path817-4-8-6-3-8-9"
       cx="25.08466"
       cy="241.18146"
       r="0.73485869" />
    <circle
       style="fill:#000000;fill-opacity:1;stroke:#000000;stroke-width:0.0634501;stroke-miterlimit:4;stroke-dasharray:none;stroke-opacity:1"
       id="path817-4-7-2-0-9-2-3"
       cx="31.666172"
       cy="241.18146"
       r="0.73485869" />
    <circle
       style="fill:#000000;fill-opacity:1;stroke:#000000;stroke-width:0.0634501;stroke-miterlimit:4;stroke-dasharray:none;stroke-opacity:1"
       id="path817-4-79-9-4-9-5-9"
       cx="38.286968"
       cy="241.14806"
       r="0.73485869" />
    <circle
       style="fill:#000000;fill-opacity:1;stroke:#000000;stroke-width:0.0634501;stroke-miterlimit:4;stroke-dasharray:none;stroke-opacity:1"
       id="path817-4-79-7-6-8-3-7-6"
       cx="44.888454"
       cy="241.14082"
       r="0.73485869" />
    <circle
       style="fill:#000000;fill-opacity:1;stroke:#000000;stroke-width:0.0634501;stroke-miterlimit:4;stroke-dasharray:none;stroke-opacity:1"
       id="path817-1-2-7-0-4-5"
       cx="51.62405"
       cy="241.18146"
       r="0.73485869" />
    <circle
       style="fill:#000000;fill-opacity:1;stroke:#000000;stroke-width:0.0634501;stroke-miterlimit:4;stroke-dasharray:none;stroke-opacity:1"
       id="path817-4-8-6-3-8-2-2"
       cx="58.252056"
       cy="241.18146"
       r="0.73485869" />
    <circle
       style="fill:#000000;fill-opacity:1;stroke:#000000;stroke-width:0.0634501;stroke-miterlimit:4;stroke-dasharray:none;stroke-opacity:1"
       id="path817-4-7-2-0-9-2-2-9"
       cx="73.300255"
       cy="241.18146"
       r="0.73485869" />
    <circle
       style="fill:#000000;fill-opacity:1;stroke:#000000;stroke-width:0.0634501;stroke-miterlimit:4;stroke-dasharray:none;stroke-opacity:1"
       id="path817-4-79-9-4-9-5-3-2"
       cx="79.921066"
       cy="241.14806"
       r="0.73485869" />
    <circle
       style="fill:#000000;fill-opacity:1;stroke:#000000;stroke-width:0.0634501;stroke-miterlimit:4;stroke-dasharray:none;stroke-opacity:1"
       id="path817-4-79-7-6-8-3-7-7-7"
       cx="86.522552"
       cy="241.14082"
       r="0.73485869" />
    <circle
       style="fill:#000000;fill-opacity:1;stroke:#000000;stroke-width:0.0634501;stroke-miterlimit:4;stroke-dasharray:none;stroke-opacity:1"
       id="path817-1-2-7-0-1-4"
       cx="93.069153"
       cy="241.18146"
       r="0.73485869" />
    <circle
       style="fill:#000000;fill-opacity:1;stroke:#000000;stroke-width:0.0634501;stroke-miterlimit:4;stroke-dasharray:none;stroke-opacity:1"
       id="path817-4-8-6-3-8-1-9"
       cx="99.697174"
       cy="241.18146"
       r="0.73485869" />
    <circle
       style="fill:#000000;fill-opacity:1;stroke:#000000;stroke-width:0.0634501;stroke-miterlimit:4;stroke-dasharray:none;stroke-opacity:1"
       id="path817-4-7-2-0-9-2-6-3"
       cx="106.27869"
       cy="241.18146"
       r="0.73485869" />
    <circle
       style="fill:#000000;fill-opacity:1;stroke:#000000;stroke-width:0.0634501;stroke-miterlimit:4;stroke-dasharray:none;stroke-opacity:1"
       id="path817-4-79-9-4-9-5-4-4"
       cx="112.89948"
       cy="241.14806"
       r="0.73485869" />
    <path
       style="fill:none;stroke:#000000;stroke-width:0.21768682px;stroke-linecap:butt;stroke-linejoin:miter;stroke-opacity:1"
       d="m 61.383332,197.516 v 46.56666"
       id="path821-5-0-1"
       inkscape:connector-curvature="0" />
    <path
       style="fill:none;stroke:#000000;stroke-width:0.19155136px;stroke-linecap:butt;stroke-linejoin:miter;stroke-opacity:1"
       d="M 15.081249,237.46808 H 115.62291"
       id="path1024-8-9-6"
       inkscape:connector-curvature="0" />
    <path
       style="fill:none;stroke:#000000;stroke-width:0.19155136px;stroke-linecap:butt;stroke-linejoin:miter;stroke-opacity:1"
       d="M 15.081249,224.23891 H 115.62292"
       id="path1024-8-9-7"
       inkscape:connector-curvature="0" />
    <path
       style="fill:none;stroke:#000000;stroke-width:0.1916557px;stroke-linecap:butt;stroke-linejoin:miter;stroke-opacity:1"
       d="M 15.081249,244.08266 H 115.73248"
       id="path1024-8-9-6-2"
       inkscape:connector-curvature="0" />
    <path
       style="fill:none;stroke:#000000;stroke-width:0.19165444px;stroke-linecap:butt;stroke-linejoin:miter;stroke-opacity:1"
       d="M 15.081249,197.59349 H 115.73115"
       id="path1024-8-9-6-2-1"
       inkscape:connector-curvature="0" />
    <path
       style="fill:none;stroke:#000000;stroke-width:0.21768679px;stroke-linecap:butt;stroke-linejoin:miter;stroke-opacity:1"
       d="m 15.187977,197.49846 v 46.56665"
       id="path821-97"
       inkscape:connector-curvature="0" />
    <path
       style="fill:none;stroke:#000000;stroke-width:0.2176884px;stroke-linecap:butt;stroke-linejoin:miter;stroke-opacity:1"
       d="m 115.62292,197.51532 v 46.56734"
       id="path821-3-7-8-3"
       inkscape:connector-curvature="0" />
    <text
       xml:space="preserve"
       style="font-style:normal;font-variant:normal;font-weight:normal;font-stretch:normal;font-size:10.58333302px;line-height:1.25;font-family:'Palatino Linotype';-inkscape-font-specification:'Palatino Linotype';letter-spacing:0px;word-spacing:0px;fill:#000000;fill-opacity:1;stroke:none;stroke-width:0.26458332"
       x="61.905853"
       y="246.6097"
       id="text1698"><tspan
         sodipodi:role="line"
         id="tspan1696"
         x="61.905853"
         y="246.6097"
         style="stroke-width:0.26458332">...</tspan></text>
    <text
       xml:space="preserve"
       style="font-style:normal;font-variant:normal;font-weight:normal;font-stretch:normal;font-size:1.84144986px;line-height:1.25;font-family:'Palatino Linotype';-inkscape-font-specification:'Palatino Linotype';letter-spacing:0px;word-spacing:0px;fill:#000000;fill-opacity:1;stroke:none;stroke-width:0.09701457"
       x="-251.70973"
       y="19.2024"
       id="text1702"
       transform="rotate(-90)"><tspan
         sodipodi:role="line"
         id="tspan1700"
         x="-251.70973"
         y="19.2024"
         style="font-style:normal;font-variant:normal;font-weight:normal;font-stretch:normal;font-family:'Palatino Linotype';-inkscape-font-specification:'Palatino Linotype';stroke-width:0.09701457">Thread 1</tspan></text>
    <text
       xml:space="preserve"
       style="font-style:normal;font-variant:normal;font-weight:normal;font-stretch:normal;font-size:2.09534907px;line-height:1.25;font-family:'Palatino Linotype';-inkscape-font-specification:'Palatino Linotype';letter-spacing:0px;word-spacing:0px;fill:#000000;fill-opacity:1;stroke:none;stroke-width:0.09900565"
       x="-252.88126"
       y="25.695595"
       id="text1702-4"
       transform="rotate(-90)"><tspan
         sodipodi:role="line"
         id="tspan1700-7"
         x="-252.88126"
         y="25.695595"
         style="font-style:normal;font-variant:normal;font-weight:normal;font-stretch:normal;font-family:'Palatino Linotype';-inkscape-font-specification:'Palatino Linotype';stroke-width:0.09900565">Thread 2</tspan></text>
    <text
       xml:space="preserve"
       style="font-style:normal;font-variant:normal;font-weight:normal;font-stretch:normal;font-size:2.13481545px;line-height:1.25;font-family:'Palatino Linotype';-inkscape-font-specification:'Palatino Linotype';letter-spacing:0px;word-spacing:0px;fill:#000000;fill-opacity:1;stroke:none;stroke-width:0.09358148"
       x="-253.20331"
       y="32.488544"
       id="text1702-1"
       transform="rotate(-90)"
       inkscape:transform-center-x="-2.3388619"
       inkscape:transform-center-y="-2.5652078"><tspan
         sodipodi:role="line"
         id="tspan1700-8"
         x="-253.20331"
         y="32.488544"
         style="font-style:normal;font-variant:normal;font-weight:normal;font-stretch:normal;font-family:'Palatino Linotype';-inkscape-font-specification:'Palatino Linotype';stroke-width:0.09358148">Thread 3</tspan></text>
    <text
       xml:space="preserve"
       style="font-style:normal;font-variant:normal;font-weight:normal;font-stretch:normal;font-size:2.79880118px;line-height:1.25;font-family:'Palatino Linotype';-inkscape-font-specification:'Palatino Linotype';letter-spacing:0px;word-spacing:0px;fill:#000000;fill-opacity:1;stroke:none;stroke-width:0.06997003"
       x="-258.1601"
       y="113.93317"
       id="text1702-0"
       transform="rotate(-90)"><tspan
         sodipodi:role="line"
         id="tspan1700-1"
         x="-258.1601"
         y="113.93317"
         style="font-style:normal;font-variant:normal;font-weight:normal;font-stretch:normal;font-family:'Palatino Linotype';-inkscape-font-specification:'Palatino Linotype';stroke-width:0.06997003">Thread Nx</tspan></text>
    <text
       xml:space="preserve"
       style="font-style:normal;font-variant:normal;font-weight:normal;font-stretch:normal;font-size:2.65654016px;line-height:1.25;font-family:'Palatino Linotype';-inkscape-font-specification:'Palatino Linotype';letter-spacing:0px;word-spacing:0px;fill:#000000;fill-opacity:1;stroke:none;stroke-width:0.0664135"
       x="-259.89084"
       y="107.1791"
       id="text1702-0-9"
       transform="rotate(-90)"><tspan
         sodipodi:role="line"
         id="tspan1700-1-6"
         x="-259.89084"
         y="107.1791"
         style="font-style:normal;font-variant:normal;font-weight:normal;font-stretch:normal;font-family:'Palatino Linotype';-inkscape-font-specification:'Palatino Linotype';stroke-width:0.0664135">Thread Nx-1</tspan></text>
    <text
       xml:space="preserve"
       style="font-style:normal;font-variant:normal;font-weight:normal;font-stretch:normal;font-size:2.56592798px;line-height:1.25;font-family:'Palatino Linotype';-inkscape-font-specification:'Palatino Linotype';letter-spacing:0px;word-spacing:0px;fill:#000000;fill-opacity:1;stroke:none;stroke-width:0.0641482"
       x="-259.61411"
       y="100.61063"
       id="text1702-0-2"
       transform="rotate(-90)"><tspan
         sodipodi:role="line"
         id="tspan1700-1-4"
         x="-259.61411"
         y="100.61063"
         style="font-style:normal;font-variant:normal;font-weight:normal;font-stretch:normal;font-family:'Palatino Linotype';-inkscape-font-specification:'Palatino Linotype';stroke-width:0.0641482">Thread Nx-2</tspan></text>
    <text
       xml:space="preserve"
       style="font-style:normal;font-variant:normal;font-weight:normal;font-stretch:normal;font-size:10.58333302px;line-height:1.25;font-family:'Palatino Linotype';-inkscape-font-specification:'Palatino Linotype';letter-spacing:0px;word-spacing:0px;fill:#000000;fill-opacity:1;stroke:none;stroke-width:0.26458332"
       x="217.06248"
       y="-12.520739"
       id="text1698-6"
       transform="rotate(90)"><tspan
         sodipodi:role="line"
         id="tspan1696-5"
         x="217.06248"
         y="-12.520739"
         style="stroke-width:0.26458332">...</tspan></text>
    <text
       xml:space="preserve"
       style="font-style:normal;font-variant:normal;font-weight:normal;font-stretch:normal;font-size:3.16760039px;line-height:1.25;font-family:'Palatino Linotype';-inkscape-font-specification:'Palatino Linotype';letter-spacing:0px;word-spacing:0px;fill:#000000;fill-opacity:1;stroke:none;stroke-width:0.07919001"
       x="4.6190848"
       y="241.7767"
       id="text1702-3"><tspan
         sodipodi:role="line"
         id="tspan1700-0"
         x="4.6190848"
         y="241.7767"
         style="font-style:normal;font-variant:normal;font-weight:normal;font-stretch:normal;font-family:'Palatino Linotype';-inkscape-font-specification:'Palatino Linotype';stroke-width:0.07919001">Block 1</tspan></text>
    <text
       xml:space="preserve"
       style="font-style:normal;font-variant:normal;font-weight:normal;font-stretch:normal;font-size:3.96022534px;line-height:1.25;font-family:'Palatino Linotype';-inkscape-font-specification:'Palatino Linotype';letter-spacing:0px;word-spacing:0px;fill:#000000;fill-opacity:1;stroke:none;stroke-width:0.09900565"
       x="24.286381"
       y="248.03754"
       id="text1702-4-7"><tspan
         sodipodi:role="line"
         id="tspan1700-7-7"
         x="24.286381"
         y="251.38522"
         style="font-style:normal;font-variant:normal;font-weight:bold;font-stretch:normal;font-family:'Palatino Linotype';-inkscape-font-specification:'Palatino Linotype Bold';stroke-width:0.09900565" /></text>
    <text
       xml:space="preserve"
       style="font-style:normal;font-variant:normal;font-weight:normal;font-stretch:normal;font-size:3.15812016px;line-height:1.25;font-family:'Palatino Linotype';-inkscape-font-specification:'Palatino Linotype';letter-spacing:0px;word-spacing:0px;fill:#000000;fill-opacity:1;stroke:none;stroke-width:0.07895301"
       x="4.732759"
       y="235.02219"
       id="text1702-4-7-9"><tspan
         sodipodi:role="line"
         id="tspan1700-7-7-8"
         x="4.732759"
         y="235.02219"
         style="font-style:normal;font-variant:normal;font-weight:normal;font-stretch:normal;font-family:'Palatino Linotype';-inkscape-font-specification:'Palatino Linotype';stroke-width:0.07895301">Block 2</tspan></text>
    <text
       xml:space="preserve"
       style="font-style:normal;font-variant:normal;font-weight:normal;font-stretch:normal;font-size:3.0302763px;line-height:1.25;font-family:'Palatino Linotype';-inkscape-font-specification:'Palatino Linotype';letter-spacing:0px;word-spacing:0px;fill:#000000;fill-opacity:1;stroke:none;stroke-width:0.07575691"
       x="4.6434579"
       y="228.47562"
       id="text1702-1-1"><tspan
         sodipodi:role="line"
         id="tspan1700-8-5"
         x="4.6434579"
         y="228.47562"
         style="font-style:normal;font-variant:normal;font-weight:normal;font-stretch:normal;font-family:'Palatino Linotype';-inkscape-font-specification:'Palatino Linotype';stroke-width:0.07575691">Block 3</tspan></text>
    <text
       xml:space="preserve"
       style="font-style:normal;font-variant:normal;font-weight:normal;font-stretch:normal;font-size:2.82232761px;line-height:1.25;font-family:'Palatino Linotype';-inkscape-font-specification:'Palatino Linotype';letter-spacing:0px;word-spacing:0px;fill:#000000;fill-opacity:1;stroke:none;stroke-width:0.0705582"
       x="2.9665861"
       y="201.65144"
       id="text1702-0-5"><tspan
         sodipodi:role="line"
         id="tspan1700-1-0"
         x="2.9665861"
         y="201.65144"
         style="font-style:normal;font-variant:normal;font-weight:normal;font-stretch:normal;font-family:'Palatino Linotype';-inkscape-font-specification:'Palatino Linotype';stroke-width:0.0705582">Block Nz</tspan></text>
    <text
       xml:space="preserve"
       style="font-style:normal;font-variant:normal;font-weight:normal;font-stretch:normal;font-size:2.61922216px;line-height:1.25;font-family:'Palatino Linotype';-inkscape-font-specification:'Palatino Linotype';letter-spacing:0px;word-spacing:0px;fill:#000000;fill-opacity:1;stroke:none;stroke-width:0.06548055"
       x="1.5077263"
       y="208.339"
       id="text1702-0-9-9"><tspan
         sodipodi:role="line"
         id="tspan1700-1-6-5"
         x="1.5077263"
         y="208.339"
         style="font-style:normal;font-variant:normal;font-weight:normal;font-stretch:normal;font-family:'Palatino Linotype';-inkscape-font-specification:'Palatino Linotype';stroke-width:0.06548055">Block Nz-1</tspan></text>
    <text
       xml:space="preserve"
       style="font-style:normal;font-variant:normal;font-weight:normal;font-stretch:normal;font-size:2.56592798px;line-height:1.25;font-family:'Palatino Linotype';-inkscape-font-specification:'Palatino Linotype';letter-spacing:0px;word-spacing:0px;fill:#000000;fill-opacity:1;stroke:none;stroke-width:0.0641482"
       x="1.6838719"
       y="214.58936"
       id="text1702-0-2-3"><tspan
         sodipodi:role="line"
         id="tspan1700-1-4-2"
         x="1.6838719"
         y="214.58936"
         style="font-style:normal;font-variant:normal;font-weight:normal;font-stretch:normal;font-family:'Palatino Linotype';-inkscape-font-specification:'Palatino Linotype';stroke-width:0.0641482">Block Nz-2</tspan></text>
    <path
       style="fill:none;stroke:#000000;stroke-width:0.414;stroke-linecap:butt;stroke-linejoin:miter;stroke-miterlimit:4;stroke-dasharray:none;stroke-opacity:1;marker-end:url(#marker2826)"
       d="m 44.905425,234.01159 v 2.19414 H 22.35729 v 34.59994 h 3.315903"
       id="path1950"
       inkscape:connector-curvature="0" />
    <path
       style="fill:none;stroke:#000000;stroke-width:0.414;stroke-linecap:butt;stroke-linejoin:miter;stroke-miterlimit:4;stroke-dasharray:none;stroke-opacity:1;marker-end:url(#marker2720)"
       d="m 51.654894,227.74534 h -5.54682 v 25.18568"
       id="path1952"
       inkscape:connector-curvature="0" />
    <path
       style="fill:none;stroke:#000000;stroke-width:0.414;stroke-linecap:butt;stroke-linejoin:miter;stroke-miterlimit:4;stroke-dasharray:none;stroke-opacity:1;marker-end:url(#marker2620)"
       d="m 58.208332,234.29317 h 7.209895 v 36.57865 h -2.248958"
       id="path1954"
       inkscape:connector-curvature="0" />
    <path
       style="fill:none;stroke:#000000;stroke-width:0.414;stroke-linecap:butt;stroke-linejoin:miter;stroke-miterlimit:4;stroke-dasharray:none;stroke-opacity:1;marker-end:url(#marker2526)"
       d="m 51.593748,241.17234 v 10.64948 h 12.766146 v 37.57083 H 45.37604 v -1.19062"
       id="path1960"
       inkscape:connector-curvature="0" />
  </g>
</svg>
